<?xml version="1.0" encoding="UTF-8" standalone="no"?>
<svg
   xmlns:dc="http://purl.org/dc/elements/1.1/"
   xmlns:cc="http://creativecommons.org/ns#"
   xmlns:rdf="http://www.w3.org/1999/02/22-rdf-syntax-ns#"
   xmlns:svg="http://www.w3.org/2000/svg"
   xmlns="http://www.w3.org/2000/svg"
   xmlns:sodipodi="http://sodipodi.sourceforge.net/DTD/sodipodi-0.dtd"
   xmlns:inkscape="http://www.inkscape.org/namespaces/inkscape"
   width="50.91473"
   height="56.151756"
   viewBox="0 0 40.731784 44.921405"
   version="1.1"
   id="svg2"
   inkscape:version="0.48.3.1 r9886"
   sodipodi:docname="Metalink_logo.svg">
  <metadata
     id="metadata48">
    <rdf:RDF>
      <cc:Work
         rdf:about="">
        <dc:format>image/svg+xml</dc:format>
        <dc:type
           rdf:resource="http://purl.org/dc/dcmitype/StillImage" />
        <dc:title></dc:title>
      </cc:Work>
    </rdf:RDF>
  </metadata>
  <defs
     id="defs46">
    <inkscape:perspective
       sodipodi:type="inkscape:persp3d"
       inkscape:vp_x="0 : 62.5 : 1"
       inkscape:vp_y="0 : 1000 : 0"
       inkscape:vp_z="362.5 : 62.5 : 1"
       inkscape:persp3d-origin="181.25 : 41.666667 : 1"
       id="perspective50" />
  </defs>
  <sodipodi:namedview
     pagecolor="#000000"
     bordercolor="#666666"
     borderopacity="1"
     objecttolerance="10"
     gridtolerance="10"
     guidetolerance="10"
     inkscape:pageopacity="0"
     inkscape:pageshadow="2"
     inkscape:window-width="1920"
     inkscape:window-height="1144"
     id="namedview44"
     showgrid="false"
     inkscape:zoom="1.5448276"
     inkscape:cx="177.28391"
     inkscape:cy="-0.082639899"
     inkscape:window-x="1600"
     inkscape:window-y="27"
     inkscape:window-maximized="1"
     inkscape:current-layer="#000000ff"
     fit-margin-top="0"
     fit-margin-left="0"
     fit-margin-right="0"
     fit-margin-bottom="0" />
  <g
     id="#ff8200ff"
     transform="translate(-3.1728741,-5.0124828)">
    <path
       d="m 7.44,8.42 c 3.46,-5.3 12,-4 15.07,1.03 1.62,2.44 1.7,5.46 2.04,8.27 4.38,0.13 9.13,-0.72 13.11,1.58 3.52,1.88 6.55,5.53 6.22,9.72 -0.28,3.19 -2.83,5.58 -5.63,6.79 2.47,2.92 3.93,7.53 1.22,10.79 -3.4,4.67 -10.57,4.05 -14.56,0.51 C 21.67,44.54 20.85,40.28 20.17,36.44 14.23,36.96 7.03,35.84 4.09,29.93 1.5,25.57 4.76,20.21 9.32,19.02 6.65,16.33 4.84,11.77 7.44,8.42 m 1.48,5.56 c 2.9,4.71 9.17,4.19 13.95,3.85 -0.98,-5 -4.4,-10.1 -9.84,-10.67 -3.49,-0.35 -6.02,3.9 -4.11,6.82 M 6.34,28.64 c 3.19,4.11 8.92,3.52 13.53,3.22 C 18.88,26.87 15.45,21.67 9.96,21.21 6.17,20.88 3.84,25.84 6.34,28.64 m 12.59,-6.25 c 1.84,2.79 2.42,6.09 2.65,9.37 1.54,-0.06 3.09,-0.13 4.64,-0.19 -1.72,-2.79 -2.59,-5.95 -3.05,-9.17 -1.41,0 -2.83,0 -4.24,-0.01 m 5.79,-0.09 c 1.57,5.49 6.3,10.64 12.2,11.17 3.98,0.54 6.89,-4.49 4.16,-7.55 C 37.14,21.1 30.23,22.13 24.72,22.3 m -2.97,14.03 c 1.02,4.3 4.17,7.77 7.91,9.96 2.67,1.48 6.77,2.04 8.74,-0.83 1.83,-2.56 0.06,-6.1 -2.45,-7.45 -4.26,-2.6 -9.46,-1.79 -14.2,-1.68 z"
       id="path22"
       inkscape:connector-curvature="0"
       style="fill:#ff8200" />
  </g>
  <g
     id="#000000ff"
     transform="translate(-3.1728741,-5.0124828)" />
</svg>
